,time,lat,lon,fl,SO2 concentration,SO2 accumulated,tephra concentration,tephra accumulated
0,2019-09-11 13:46:07,51.108143,16.882133,0.0,0.0,0.0,0.0,0.0
1,2019-09-11 13:46:51,51.107929,16.88196,0.0,0.0,0.0,0.0,0.0
2,2019-09-11 13:47:16,51.107677,16.881752,0.0,0.0,0.0,0.0,0.0
3,2019-09-11 13:47:39,51.107468,16.88158,0.0,0.0,0.0,0.0,0.0
4,2019-09-11 13:50:01,51.107609,16.881275,0.0,0.0,0.0,0.0,0.0
5,2019-09-11 13:50:10,51.107632,16.880939,0.0,0.0,0.0,0.0,0.0
6,2019-09-11 13:50:19,51.107677,16.880642,0.0,0.0,0.0,0.0,0.0
7,2019-09-11 13:50:25,51.107712,16.880436,0.0,0.0,0.0,0.0,0.0
8,2019-09-11 13:50:31,51.107792,16.880207,0.0,0.0,0.0,0.0,0.0
9,2019-09-11 13:50:40,51.107906,16.879843,0.0,0.0,0.0,0.0,0.0
10,2019-09-11 13:50:46,51.107998,16.879528,0.0,0.0,0.0,0.0,0.0
11,2019-09-11 13:51:01,51.10825,16.878731,0.0,0.0,0.0,0.0,0.0
12,2019-09-11 13:51:11,51.108501,16.877876,0.0,0.0,0.0,0.0,0.0
13,2019-09-11 13:51:24,51.108822,16.876837,0.0,0.0,0.0,0.0,0.0
14,2019-09-11 13:51:30,51.109005,16.876259,0.0,0.0,0.0,0.0,0.0
15,2019-09-11 13:51:41,51.109364,16.875095,0.0,0.0,0.0,0.0,0.0
16,2019-09-11 13:51:48,51.109474,16.874702,0.0,0.0,0.0,0.0,0.0
17,2019-09-11 13:51:56,51.10947,16.874313,0.0,0.0,0.0,0.0,0.0
18,2019-09-11 13:52:04,51.109188,16.873999,0.0,0.0,0.0,0.0,0.0
19,2019-09-11 13:52:13,51.108845,16.873737,0.0,0.0,0.0,0.0,0.0
20,2019-09-11 13:52:19,51.108604,16.873552,0.0,0.0,0.0,0.0,0.0
21,2019-09-11 13:52:25,51.108353,16.87336,0.0,0.0,0.0,0.0,0.0
22,2019-09-11 13:52:31,51.108089,16.873163,0.0,0.0,0.0,0.0,0.0
23,2019-09-11 13:52:41,51.107887,16.873016,0.0,0.0,0.0,0.0,0.0
24,2019-09-11 13:54:04,51.107883,16.873014,0.0,0.0,0.0,0.0,0.0
25,2019-09-11 13:54:33,51.107513,16.87273,0.0,0.0,0.0,0.0,0.0
26,2019-09-11 13:54:39,51.107292,16.872559,0.0,0.0,0.0,0.0,0.0
27,2019-09-11 13:54:45,51.107048,16.872328,0.0,0.0,0.0,0.0,0.0
28,2019-09-11 13:54:52,51.106968,16.871881,0.0,0.0,0.0,0.0,0.0
29,2019-09-11 13:54:59,51.107094,16.871382,0.0,0.0,0.0,0.0,0.0
30,2019-09-11 13:55:06,51.107243,16.870916,0.0,0.0,0.0,0.0,0.0
31,2019-09-11 13:55:15,51.107449,16.870213,0.0,0.0,0.0,0.0,0.0
32,2019-09-11 13:55:22,51.107594,16.869774,0.0,0.0,0.0,0.0,0.0
33,2019-09-11 13:55:30,51.107883,16.868856,0.0,0.0,0.0,0.0,0.0
34,2019-09-11 13:55:39,51.108177,16.867886,0.0,0.0,0.0,0.0,0.0
35,2019-09-11 13:55:46,51.108246,16.867237,0.0,0.0,0.0,0.0,0.0
36,2019-09-11 13:55:54,51.108273,16.866333,0.0,0.0,0.0,0.0,0.0
37,2019-09-11 13:56:01,51.10841,16.865925,0.0,0.0,0.0,0.0,0.0
38,2019-09-11 13:56:11,51.10873,16.866037,0.0,0.0,0.0,0.0,0.0
39,2019-09-11 13:56:17,51.108654,16.86636,0.0,0.0,0.0,0.0,0.0
40,2019-09-11 13:56:23,51.108562,16.866627,0.0,0.0,0.0,0.0,0.0
41,2019-09-11 13:56:30,51.108398,16.867149,0.0,0.0,0.0,0.0,0.0
42,2019-09-11 13:56:37,51.10754,16.86997,0.0,0.0,0.0,0.0,0.0
43,2019-09-11 13:56:44,51.106796,16.872364,0.0,0.0,0.0,0.0,0.0
44,2019-09-11 13:56:58,51.102722,16.885689,1.25,0.0,0.0,0.0,0.0
45,2019-09-11 13:57:05,51.1008,16.891998,2.5,0.0,0.0,0.0,0.0
46,2019-09-11 13:57:11,51.098831,16.898605,5.0,0.0,0.0,0.0,0.0
47,2019-09-11 13:57:23,51.095039,16.910858,10.25,0.0,0.0,0.0,0.0
48,2019-09-11 13:57:29,51.093155,16.916718,13.0,0.0,0.0,0.0,0.0
49,2019-09-11 13:57:36,51.091095,16.92325,15.75,0.0,0.0,0.0,0.0
50,2019-09-11 13:57:42,51.089218,16.92919,17.25,0.0,0.0,0.0,0.0
51,2019-09-11 13:57:54,51.085403,16.941223,20.0,0.0,0.0,0.0,0.0
52,2019-09-11 13:58:01,51.083588,16.947153,21.5,0.0,0.0,0.0,0.0
53,2019-09-11 13:58:08,51.081631,16.953506,23.25,0.0,0.0,0.0,0.0
54,2019-09-11 13:58:18,51.077862,16.966019,26.75,0.0,0.0,0.0,0.0
55,2019-09-11 13:58:24,51.076046,16.972198,28.5,0.0,0.0,0.0,0.0
56,2019-09-11 13:58:30,51.074203,16.978182,29.5,0.0,0.0,0.0,0.0
57,2019-09-11 13:58:37,51.071995,16.985321,30.75,0.0,0.0,0.0,0.0
58,2019-09-11 13:58:48,51.068039,16.998215,33.75,0.0,0.0,0.0,0.0
59,2019-09-11 13:58:54,51.066376,17.003643,34.5,0.0,0.0,0.0,0.0
60,2019-09-11 13:59:02,51.063858,17.01181,35.75,0.0,0.0,0.0,0.0
61,2019-09-11 13:59:13,51.059418,17.026062,37.25,0.0,0.0,0.0,0.0
62,2019-09-11 13:59:19,51.057098,17.034988,38.0,0.0,0.0,0.0,0.0
63,2019-09-11 13:59:26,51.055893,17.043209,38.5,0.0,0.0,0.0,0.0
64,2019-09-11 13:59:32,51.05584,17.053604,39.5,0.0,0.0,0.0,0.0
65,2019-09-11 13:59:38,51.057358,17.063475,40.25,0.0,0.0,0.0,0.0
66,2019-09-11 13:59:44,51.060402,17.072906,40.75,0.0,0.0,0.0,0.0
67,2019-09-11 13:59:51,51.064266,17.082214,41.75,0.0,0.0,0.0,0.0
68,2019-09-11 13:59:57,51.06897,17.092819,43.5,0.0,0.0,0.0,0.0
69,2019-09-11 14:00:05,51.075302,17.106752,46.75,0.0,0.0,0.0,0.0
70,2019-09-11 14:00:12,51.079815,17.116394,49.5,0.0,0.0,0.0,0.0
71,2019-09-11 14:00:18,51.08519,17.125532,52.0,0.0,0.0,0.0,0.0
72,2019-09-11 14:00:25,51.092422,17.133698,54.5,0.0,0.0,0.0,0.0
73,2019-09-11 14:00:31,51.099648,17.138443,56.75,0.0,0.0,0.0,0.0
74,2019-09-11 14:00:37,51.107529,17.140453,59.25,0.0,0.0,0.0,0.0
75,2019-09-11 14:00:43,51.115849,17.13974,62.25,0.0,0.0,0.0,0.0
76,2019-09-11 14:00:50,51.124191,17.137484,65.75,0.0,0.0,0.0,0.0
77,2019-09-11 14:00:59,51.135864,17.133995,71.25,0.0,0.0,0.0,0.0
78,2019-09-11 14:01:17,51.159744,17.127457,80.75,0.0,0.0,0.0,0.0
79,2019-09-11 14:01:29,51.174969,17.123718,86.25,0.0,0.0,0.0,0.0
80,2019-09-11 14:01:42,51.19154,17.119904,92.5,0.0,0.0,0.0,0.0
81,2019-09-11 14:01:55,51.208485,17.116165,97.25,0.0,0.0,0.0,0.0
82,2019-09-11 14:02:07,51.226269,17.112198,103.0,0.0,0.0,0.0,0.0
83,2019-09-11 14:02:19,51.243027,17.108459,106.75,0.0,0.0,0.0,0.0
84,2019-09-11 14:02:31,51.261383,17.104229,109.0,0.0,0.0,0.0,0.0
85,2019-09-11 14:02:44,51.27985,17.099762,111.0,0.0,0.0,0.0,0.0
86,2019-09-11 14:03:10,51.322308,17.089691,118.75,0.0,0.0,0.0,0.0
87,2019-09-11 14:03:22,51.342773,17.08478,123.25,0.0,0.0,0.0,0.0
88,2019-09-11 14:03:55,51.397488,17.071686,137.25,0.0,0.0,0.0,0.0
89,2019-09-11 14:04:29,51.453629,17.058105,150.5,0.0,0.0,0.0,0.0
90,2019-09-11 14:04:58,51.505142,17.045511,160.25,0.0,0.0,0.0,0.0
91,2019-09-11 14:05:23,51.547478,17.031403,168.0,0.0,0.0,0.0,0.0
92,2019-09-11 14:05:32,51.560421,17.021103,170.75,0.0,0.0,0.0,0.0
93,2019-09-11 14:05:40,51.573578,17.00639,174.5,0.0,0.0,0.0,0.0
94,2019-09-11 14:05:47,51.582581,16.995773,176.75,0.0,0.0,0.0,0.0
95,2019-09-11 14:05:53,51.590973,16.985754,178.5,0.0,0.0,0.0,0.0
96,2019-09-11 14:07:04,51.692863,16.86615,200.25,0.0,0.0,0.0,0.0
97,2019-09-11 14:08:03,51.782475,16.760483,217.75,0.0,0.0,0.0,0.0
98,2019-09-11 14:09:08,51.879318,16.64555,234.0,0.0,0.0,0.0,0.0
99,2019-09-11 14:10:08,51.973618,16.532698,248.0,0.0,0.0,0.0,0.0
100,2019-09-11 14:11:12,52.073147,16.41279,262.5,0.0,0.0,0.0,0.0
101,2019-09-11 14:11:18,52.083344,16.400452,263.75,0.0,0.0,0.0,0.0
102,2019-09-11 14:12:45,52.223236,16.231232,279.25,0.0,0.0,0.0,0.0
103,2019-09-11 14:13:47,52.326389,16.105408,289.5,0.0,0.0,0.0,0.0
104,2019-09-11 14:14:52,52.434856,15.972631,306.75,0.0,0.0,0.0,0.0
105,2019-09-11 14:15:55,52.536015,15.847465,322.25,0.0,0.0,0.0,0.0
106,2019-09-11 14:16:59,52.636105,15.723162,332.5,0.0,0.0,0.0,0.0
107,2019-09-11 14:18:00,52.735493,15.599095,340.0,0.0,0.0,0.0,0.0
108,2019-09-11 14:19:02,52.83316,15.476362,340.0,0.0,0.0,0.0,0.0
109,2019-09-11 14:20:08,52.939251,15.342565,340.0,0.0,0.0,0.0,0.0
110,2019-09-11 14:21:11,53.04007,15.214157,340.5,0.0,0.0,0.0,0.0
111,2019-09-11 14:22:13,53.138866,15.087541,340.25,0.0,0.0,0.0,0.0
112,2019-09-11 14:22:48,53.190632,15.021057,340.0,0.0,0.0,0.0,0.0
113,2019-09-11 14:23:44,53.279022,14.907191,339.5,0.0,0.0,0.0,0.0
114,2019-09-11 14:24:58,53.393974,14.758032,340.0,0.0,0.0,0.0,0.0
115,2019-09-11 14:26:23,53.525986,14.585214,340.0,0.0,0.0,0.0,0.0
116,2019-09-11 14:27:27,53.624084,14.455889,340.0,0.0,0.0,0.0,0.0
117,2019-09-11 14:28:01,53.675846,14.387728,340.0,0.0,0.0,0.0,0.0
118,2019-09-11 14:29:31,53.817352,14.210344,340.0,0.0,0.0,0.0,0.0
119,2019-09-11 14:30:32,53.912148,14.089885,340.0,0.0,0.0,0.0,0.0
120,2019-09-11 14:31:34,54.011215,13.963231,340.0,0.0,0.0,0.0,0.0
121,2019-09-11 14:32:38,54.110226,13.835826,340.0,0.0,0.0,0.0,0.0
122,2019-09-11 14:33:39,54.206776,13.710776,340.25,0.0,0.0,0.0,0.0
123,2019-09-11 14:34:41,54.305466,13.582171,339.75,0.0,0.0,0.0,0.0
124,2019-09-11 14:35:45,54.407883,13.448098,340.0,0.0,0.0,0.0,0.0
125,2019-09-11 14:36:49,54.508621,13.315263,340.25,0.0,0.0,0.0,0.0
126,2019-09-11 14:37:52,54.611828,13.178184,340.0,0.0,0.0,0.0,0.0
127,2019-09-11 14:38:55,54.714149,13.041604,340.25,0.0,0.0,0.0,0.0
128,2019-09-11 14:39:58,54.816143,12.904275,340.0,0.0,0.0,0.0,0.0
129,2019-09-11 14:40:57,54.912781,12.773464,340.0,0.0,0.0,0.0,0.0
130,2019-09-11 14:42:01,55.015594,12.633308,340.0,0.0,0.0,0.0,0.0
131,2019-09-11 14:43:04,55.118088,12.492424,340.0,0.0,0.0,0.0,0.0
132,2019-09-11 14:44:07,55.22113,12.349925,340.0,0.0,0.0,0.0,0.0
133,2019-09-11 14:45:11,55.324776,12.206143,340.0,0.0,0.0,0.0,0.0
134,2019-09-11 14:46:14,55.4277,12.061906,340.0,0.0,0.0,0.0,0.0
135,2019-09-11 14:47:17,55.529297,11.918751,340.0,0.0,0.0,0.0,0.0
136,2019-09-11 14:48:21,55.63118,11.774082,340.0,0.0,0.0,0.0,0.0
137,2019-09-11 14:49:24,55.731949,11.630194,339.75,0.0,0.0,0.0,0.0
138,2019-09-11 14:50:27,55.831329,11.487205,340.0,0.0,0.0,0.0,0.0
139,2019-09-11 14:51:29,55.93483,11.337225,340.0,0.0,0.0,0.0,0.0
140,2019-09-11 14:52:33,56.036682,11.188493,340.25,0.0,0.0,0.0,0.0
141,2019-09-11 14:53:32,56.133545,11.04592,340.25,0.0,0.0,0.0,0.0
142,2019-09-11 14:54:34,56.231552,10.901184,340.0,0.0,0.0,0.0,0.0
143,2019-09-11 14:55:44,56.345627,10.731146,339.75,0.0,0.0,0.0,0.0
144,2019-09-11 14:56:46,56.445564,10.581121,340.0,0.0,0.0,0.0,0.0
145,2019-09-11 14:57:48,56.547043,10.427524,340.0,0.0,0.0,0.0,0.0
146,2019-09-11 14:58:54,56.652397,10.267167,339.75,0.0,0.0,0.0,0.0
147,2019-09-11 14:59:56,56.755138,10.10946,340.25,0.0,0.0,0.0,0.0
148,2019-09-11 15:01:02,56.866631,9.936603,340.5,0.0,0.0,0.0,0.0
149,2019-09-11 15:02:02,56.970245,9.775343,340.0,0.0,0.0,0.0,0.0
150,2019-09-11 15:03:07,57.072647,9.614325,340.0,0.0,0.0,0.0,0.0
151,2019-09-11 15:04:09,57.174683,9.45262,340.25,0.0,0.0,0.0,0.0
152,2019-09-11 15:05:12,57.272984,9.296028,340.25,0.0,0.0,0.0,0.0
153,2019-09-11 15:06:14,57.37447,9.132563,340.25,0.0,0.0,0.0,0.0
154,2019-09-11 15:07:16,57.47525,8.969393,340.0,0.0,0.0,0.0,0.0
155,2019-09-11 15:08:19,57.574356,8.807516,339.75,0.0,0.0,0.0,0.0
156,2019-09-11 15:09:22,57.673473,8.645088,340.0,0.0,0.0,0.0,0.0
157,2019-09-11 15:10:22,57.767578,8.489242,339.75,0.0,0.0,0.0,0.0
158,2019-09-11 15:11:26,57.866108,8.32489,340.0,0.0,0.0,0.0,0.0
159,2019-09-11 15:12:30,57.964474,8.159546,340.0,0.0,0.0,0.0,0.0
160,2019-09-11 15:13:32,58.06279,7.99292,340.0,0.0,0.0,0.0,0.0
161,2019-09-11 15:14:36,58.159851,7.827393,340.25,0.0,0.0,0.0,0.0
162,2019-09-11 15:15:38,58.256866,7.660217,340.0,0.0,0.0,0.0,0.0
163,2019-09-11 15:16:40,58.353058,7.493207,340.0,0.0,0.0,0.0,0.0
164,2019-09-11 15:17:42,58.444336,7.33426,339.75,0.0,0.0,0.0,0.0
165,2019-09-11 15:18:45,58.540054,7.165744,339.75,0.0,0.0,0.0,0.0
166,2019-09-11 15:19:49,58.63422,6.99884,340.25,0.0,0.0,0.0,0.0
167,2019-09-11 15:20:52,58.730022,6.827179,340.0,0.0,0.0,0.0,0.0
168,2019-09-11 15:21:54,58.824619,6.656616,340.25,0.0,0.0,0.0,0.0
169,2019-09-11 15:22:58,58.918762,6.485779,340.25,0.0,0.0,0.0,0.0
170,2019-09-11 15:23:58,59.007248,6.324097,340.0,0.0,0.0,0.0,0.0
171,2019-09-11 15:25:01,59.099697,6.153575,339.75,0.0,0.0,0.0,0.0
172,2019-09-11 15:26:04,59.190262,5.984985,340.0,0.0,0.0,0.0,0.0
173,2019-09-11 15:27:06,59.282272,5.812336,339.5,0.0,0.0,0.0,0.0
174,2019-09-11 15:28:10,59.373642,5.640106,339.75,0.0,0.0,0.0,0.0
175,2019-09-11 15:29:14,59.465595,5.465225,340.25,0.0,0.0,0.0,0.0
176,2019-09-11 15:30:14,59.553314,5.297607,340.25,0.0,0.0,0.0,0.0
177,2019-09-11 15:31:17,59.644356,5.121334,340.25,0.0,0.0,0.0,0.0
178,2019-09-11 15:32:40,59.767254,4.881434,340.0,0.0,0.0,0.0,0.0
179,2019-09-11 15:33:42,59.853748,4.71143,340.25,0.0,0.0,0.0,0.0
180,2019-09-11 15:34:33,59.927444,4.564911,340.25,0.0,0.0,0.0,0.0
181,2019-09-11 15:36:05,60.05611,4.307229,340.0,0.0,0.0,0.0,0.0
182,2019-09-11 15:37:06,60.141396,4.134293,339.75,0.0,0.0,0.0,0.0
183,2019-09-11 15:38:07,60.226685,3.960855,340.0,0.0,0.0,0.0,0.0
184,2019-09-11 15:39:09,60.312008,3.785967,340.0,0.0,0.0,0.0,0.0
185,2019-09-11 15:40:09,60.397198,3.610088,340.0,0.0,0.0,0.0,0.0
186,2019-09-11 15:41:09,60.480881,3.434838,340.0,0.0,0.0,0.0,0.0
187,2019-09-11 15:42:12,60.567581,3.252738,340.0,0.0,0.0,0.0,0.0
188,2019-09-11 15:43:15,60.655426,3.066227,340.25,0.0,0.0,0.0,0.0
189,2019-09-11 15:44:17,60.739014,2.8877,340.0,0.0,0.0,0.0,0.0
190,2019-09-11 15:45:19,60.826172,2.699511,340.0,0.0,0.0,0.0,0.0
191,2019-09-11 15:46:22,60.912277,2.512176,340.25,0.0,0.0,0.0,0.0
192,2019-09-11 15:47:26,60.998608,2.323706,348.5,0.0,0.0,0.0,0.0
193,2019-09-11 15:48:29,61.08189,2.139282,359.0,0.0,0.0,0.0,0.0
194,2019-09-11 15:49:29,61.161118,1.962629,360.0,0.0,0.0,0.0,0.0
195,2019-09-11 15:50:04,61.208,1.857503,360.0,0.0,0.0,0.0,0.0
196,2019-09-11 15:51:37,61.330307,1.580168,360.0,0.0,0.0,0.0,0.0
197,2019-09-11 15:52:39,61.411835,1.394185,360.0,0.0,0.0,0.0,0.0
198,2019-09-11 15:53:40,61.493088,1.20673,360.25,0.0,0.0,0.0,0.0
199,2019-09-11 15:54:42,61.573563,1.019669,360.25,0.0,0.0,0.0,0.0
200,2019-09-11 15:55:42,61.653671,0.831724,360.25,0.0,0.0,0.0,0.0
201,2019-09-11 15:56:47,61.736938,0.634853,359.75,0.0,0.0,0.0,0.0
202,2019-09-11 15:57:49,61.819927,0.436605,360.0,0.0,0.0,0.0,0.0
203,2019-09-11 15:58:31,61.874725,0.305067,360.25,0.0,0.0,0.0,0.0
204,2019-09-11 15:59:46,61.968662,0.071106,359.75,0.0,0.0,0.0,0.0
205,2019-09-11 16:01:19,62.048126,-0.272304,360.25,0.0,0.0,0.0,0.0
206,2019-09-11 16:02:21,62.090538,-0.514933,360.0,0.0,0.0,0.0,0.0
207,2019-09-11 16:03:23,62.132294,-0.758057,360.0,0.0,0.0,0.0,0.0
208,2019-09-11 16:04:24,62.171307,-0.988241,359.75,0.0,0.0,0.0,0.0
209,2019-09-11 16:05:24,62.210449,-1.222432,359.75,0.0,0.0,0.0,0.0
210,2019-09-11 16:06:27,62.251282,-1.469421,360.25,0.0,0.0,0.0,0.0
211,2019-09-11 16:07:27,62.289593,-1.704254,360.0,0.0,0.0,0.0,0.0
212,2019-09-11 16:08:31,62.329605,-1.952006,360.0,0.0,0.0,0.0,0.0
213,2019-09-11 16:09:34,62.368919,-2.198956,360.25,0.0,0.0,0.0,0.0
214,2019-09-11 16:10:35,62.405464,-2.433894,360.0,0.0,0.0,0.0,0.0
215,2019-09-11 16:11:40,62.443359,-2.679138,360.0,0.0,0.0,0.0,0.0
216,2019-09-11 16:12:44,62.482635,-2.936707,360.0,0.0,0.0,0.0,0.0
217,2019-09-11 16:13:48,62.519714,-3.183187,360.0,0.0,0.0,0.0,0.0
218,2019-09-11 16:14:49,62.554337,-3.417804,360.0,0.0,0.0,0.0,0.0
219,2019-09-11 16:15:53,62.589764,-3.661194,359.75,0.0,0.0,0.0,0.0
220,2019-09-11 16:16:29,62.610489,-3.805135,360.0,0.0,0.0,0.0,0.0
221,2019-09-11 16:18:00,62.661392,-4.162394,360.0,0.0,0.0,0.0,0.0
222,2019-09-11 16:19:01,62.694736,-4.400236,360.0,0.0,0.0,0.0,0.0
223,2019-09-11 16:20:03,62.727745,-4.639717,360.0,0.0,0.0,0.0,0.0
224,2019-09-11 16:21:03,62.759903,-4.87854,360.0,0.0,0.0,0.0,0.0
225,2019-09-11 16:22:03,62.791763,-5.116374,360.0,0.0,0.0,0.0,0.0
226,2019-09-11 16:23:07,62.825039,-5.369674,360.0,0.0,0.0,0.0,0.0
227,2019-09-11 16:24:09,62.856506,-5.612535,360.0,0.0,0.0,0.0,0.0
228,2019-09-11 16:25:09,62.887184,-5.852333,360.0,0.0,0.0,0.0,0.0
229,2019-09-11 16:26:11,62.917694,-6.094462,359.75,0.0,0.0,0.0,0.0
230,2019-09-11 16:26:40,62.932434,-6.213086,360.0,0.0,0.0,0.0,0.0
231,2019-09-11 16:27:25,62.954498,-6.392881,360.0,0.0,0.0,0.0,0.0
232,2019-09-11 16:28:53,62.997375,-6.748775,360.25,0.0,0.0,0.0,0.0
233,2019-09-11 16:30:01,63.028839,-7.015279,359.75,0.0,0.0,0.0,0.0
234,2019-09-11 16:30:22,63.038635,-7.099406,360.0,0.0,0.0,0.0,0.0
235,2019-09-11 16:33:37,63.127953,-7.887233,360.25,0.0,0.0,0.0,0.0
236,2019-09-11 16:34:40,63.155697,-8.142031,360.0,0.0,0.0,0.0,0.0
237,2019-09-11 16:35:40,63.182606,-8.392076,360.0,0.0,0.0,0.0,0.0
238,2019-09-11 16:36:43,63.209473,-8.647191,360.25,0.0,0.0,0.0,0.0
239,2019-09-11 16:37:44,63.235886,-8.902307,360.25,0.0,0.0,0.0,0.0
240,2019-09-11 16:38:46,63.2612,-9.152879,360.0,0.0,0.0,0.0,0.0
241,2019-09-11 16:39:46,63.286057,-9.402289,359.75,0.0,0.0,0.0,0.0
242,2019-09-11 16:40:22,63.300613,-9.550922,359.75,0.0,0.0,0.0,0.0
243,2019-09-11 16:41:52,63.335861,-9.919915,360.25,0.0,0.0,0.0,0.0
244,2019-09-11 16:42:52,63.359711,-10.173868,360.25,0.0,0.0,0.0,0.0
245,2019-09-11 16:43:54,63.383331,-10.431835,360.0,0.0,0.0,0.0,0.0
246,2019-09-11 16:44:55,63.406128,-10.68843,360.0,0.0,0.0,0.0,0.0
247,2019-09-11 16:45:57,63.428867,-10.946887,359.75,0.0,0.0,0.0,0.0
248,2019-09-11 16:46:58,63.450886,-11.20177,360.0,0.0,0.0,0.0,0.0
249,2019-09-11 16:47:59,63.472393,-11.460718,360.0,0.0,0.0,0.0,0.0
250,2019-09-11 16:49:01,63.493713,-11.720105,360.0,0.0,0.0,0.0,0.0
251,2019-09-11 16:50:01,63.514435,-11.978901,360.0,0.0,0.0,0.0,0.0
252,2019-09-11 16:51:02,63.534622,-12.238558,360.0,2.1639159880037277e-10,2.1639159880037277e-10,4.141053966790484e-06,4.141053966790484e-06
253,2019-09-11 16:52:03,63.554169,-12.495787,360.0,2.6705736382046444e-10,4.834489626208372e-10,2.041584601634472e-05,2.4556899983135207e-05
254,2019-09-11 16:53:03,63.573273,-12.753039,360.0,3.939362190418945e-10,8.773851816627317e-10,0.0001278636325108136,0.0001524205324939488
255,2019-09-11 16:54:05,63.592392,-13.016581,360.0,5.82298146475026e-10,1.4596833281377578e-09,0.006636139189500827,0.006788559721994775
256,2019-09-11 16:55:05,63.610794,-13.276766,360.0,7.630244268392154e-10,2.222707754976973e-09,0.03220072284627929,0.03898928256827407
257,2019-09-11 16:56:09,63.629562,-13.550368,360.0,9.023376567735784e-10,3.1250454117505517e-09,0.09103042507114781,0.1300197076394219
258,2019-09-11 16:57:11,63.646732,-13.811462,360.0,1.1548377430152272e-09,4.279883154765779e-09,0.17419646079271114,0.30421616843213306
259,2019-09-11 16:58:11,63.663666,-14.073909,360.25,1.7916684589638157e-09,6.071551613729594e-09,0.22763234043587316,0.5318485088680063
260,2019-09-11 16:59:11,63.679962,-14.334095,360.0,2.4584092441840015e-09,8.529960857913596e-09,0.2135206997893207,0.7453692086573269
261,2019-09-11 17:00:15,63.696636,-14.60874,360.0,2.7933564205081943e-09,1.1323317278421791e-08,0.14676018274364633,0.8921293914009732
262,2019-09-11 17:01:17,63.712276,-14.872632,360.0,2.450086735502345e-09,1.3773404013924136e-08,0.10513732480944332,0.9972667162104165
263,2019-09-11 17:02:17,63.72736,-15.137293,360.0,1.681709028542017e-09,1.5455113042466154e-08,0.12825969509751273,1.1255264113079293
264,2019-09-11 17:03:21,63.742767,-15.416346,360.0,1.0456908817347546e-09,1.6500803924200908e-08,0.17100298547894296,1.2965293967868723
265,2019-09-11 17:04:21,63.756683,-15.681082,360.0,7.758806795831243e-10,1.7276684603784032e-08,0.16816733643521123,1.4646967332220835
266,2019-09-11 17:05:23,63.770374,-15.950171,360.0,5.308300420382186e-10,1.780751464582225e-08,0.10913213262494183,1.5738288658470254
267,2019-09-11 17:06:25,63.784248,-16.228235,360.0,2.2948310399163723e-10,1.8036997749813887e-08,0.04622699362671719,1.6200558594737426
268,2019-09-11 17:07:29,63.797466,-16.508057,360.0,5.356753266927098e-11,1.809056528248316e-08,0.03098683003536651,1.6510426895091093
269,2019-09-11 17:08:29,63.810131,-16.77799,360.0,1.3784262669485054e-11,1.8104349545152645e-08,0.034549827007476656,1.685592516516586
270,2019-09-11 17:09:31,63.823723,-17.047155,360.0,3.772487076107664e-12,1.810812203222875e-08,0.06827791130015747,1.7538704278167434
271,2019-09-11 17:10:31,63.836746,-17.316883,360.0,1.3188184736483852e-12,1.81094408507024e-08,0.3833451486226719,2.137215576439415
272,2019-09-11 17:11:34,63.849514,-17.598669,360.0,6.994099040531822e-13,1.8110140260606454e-08,1.308130690087612,3.445346266527027
273,2019-09-11 17:12:35,63.861649,-17.866833,360.0,5.061407293855393e-13,1.811064640133584e-08,2.168072354027827,5.613418620554854
274,2019-09-11 17:13:36,63.873093,-18.138216,354.0,2.1448572673888413e-13,1.8110860887062577e-08,2.5365553374757166,8.149973958030571
275,2019-09-11 17:14:36,63.883575,-18.404846,339.0,3.29603678293987e-14,1.8110893847430406e-08,1.4316000209391473,9.581573978969718
276,2019-09-11 17:15:39,63.894012,-18.676758,316.75,7.875512694081564e-15,1.81109017229431e-08,0.2598497695960357,9.841423748565754
277,2019-09-11 17:16:41,63.903809,-18.946239,294.5,5.43169014899207e-17,1.8110901777260002e-08,0.06710624289934257,9.908529991465096
278,2019-09-11 17:17:42,63.912506,-19.198397,276.25,4.304809072912657e-18,1.8110901781564812e-08,0.8821373677355248,10.79066735920062
279,2019-09-11 17:18:24,63.918182,-19.367418,260.75,3.045809946395003e-19,1.8110901781869393e-08,1.7921183744929412,12.582785733693562
280,2019-09-11 17:19:57,63.929256,-19.723095,232.25,8.623821102604265e-22,1.8110901781870257e-08,0.9333823365198037,13.516168070213366
281,2019-09-11 17:20:57,63.936035,-19.948214,213.75,4.879747144165212e-22,1.8110901781870743e-08,0.13172602514374335,13.64789409535711
282,2019-09-11 17:21:12,63.937542,-20.001049,208.75,3.2945191639003926e-22,1.8110901781871074e-08,0.04439248863589201,13.692286583993003
283,2019-09-11 17:22:43,63.946243,-20.327877,179.0,3.575903976119457e-24,1.8110901781871077e-08,0.5366459436828016,14.228932527675804
284,2019-09-11 17:23:16,63.949276,-20.442261,169.5,2.7388043171705065e-24,1.811090178187108e-08,0.7844128288910986,15.013345356566903
285,2019-09-11 17:23:50,63.952423,-20.554575,159.25,1.4552191379997479e-24,1.811090178187108e-08,0.8547196842605701,15.868065040827473
286,2019-09-11 17:24:22,63.955326,-20.664623,149.25,6.4410701895413794e-27,1.811090178187108e-08,0.6796366840407476,16.54770172486822
287,2019-09-11 17:24:54,63.957916,-20.76321,140.5,5.609637266063987e-27,1.811090178187108e-08,0.4413293823532515,16.98903110722147
288,2019-09-11 17:25:27,63.960632,-20.870289,131.0,4.490976849002476e-27,1.811090178187108e-08,0.22254754830366769,17.211578655525138
289,2019-09-11 17:26:00,63.963146,-20.975977,121.25,3.201661120958522e-27,1.811090178187108e-08,0.06539437277738111,17.276973028302518
290,2019-09-11 17:26:33,63.965614,-21.080347,112.25,1.813423550400929e-27,1.811090178187108e-08,0.016809229308429284,17.293782257610946
291,2019-09-11 17:26:49,63.966732,-21.126928,108.25,1.202961868611151e-27,1.811090178187108e-08,0.00834314129423452,17.30212539890518
292,2019-09-11 17:27:01,63.967617,-21.162964,105.25,7.566037909343501e-28,1.811090178187108e-08,0.0038598731894138446,17.305985272094592
293,2019-09-11 17:27:12,63.968452,-21.199108,103.25,4.635551142385119e-28,1.811090178187108e-08,0.0014621402662670154,17.307447412360858
294,2019-09-11 17:27:24,63.969269,-21.233931,101.75,2.4778956769477373e-28,1.811090178187108e-08,0.00027367739044728437,17.307721089751304
295,2019-09-11 17:27:36,63.96999,-21.267883,100.75,1.0570609847264797e-28,1.811090178187108e-08,7.038483621398177e-08,17.30772116013614
296,2019-09-11 17:27:48,63.970734,-21.300953,99.25,2.5387457404816605e-30,1.811090178187108e-08,5.1605488607833756e-08,17.30772121174163
297,2019-09-11 17:28:01,63.971527,-21.33424,95.25,2.2155808519722138e-30,1.811090178187108e-08,3.9828240930256384e-08,17.30772125156987
298,2019-09-11 17:28:13,63.972244,-21.367985,91.75,1.939256680061109e-30,1.811090178187108e-08,2.962478135693607e-08,17.307721281194652
299,2019-09-11 17:28:25,63.972969,-21.400599,88.75,1.7060306599878708e-30,1.811090178187108e-08,2.1033417261046516e-08,17.30772130222807
300,2019-09-11 17:28:37,63.973621,-21.433666,85.25,1.469013165830988e-30,1.811090178187108e-08,1.3196545132979431e-08,17.307721315424615
301,2019-09-11 17:28:53,63.974487,-21.475737,81.5,1.2190281680776959e-30,1.811090178187108e-08,4.871833006117226e-09,17.307721320296448
302,2019-09-11 17:29:05,63.975128,-21.508801,78.75,1.0546360315031888e-30,1.811090178187108e-08,7.080902747784982e-10,17.30772132100454
303,2019-09-11 17:29:17,63.975761,-21.542652,76.5,9.378459922571939e-31,1.811090178187108e-08,5.642114158271109e-10,17.30772132156875
304,2019-09-11 17:29:29,63.97641,-21.576199,74.5,8.358439479823963e-31,1.811090178187108e-08,4.401975326523861e-10,17.30772132200895
305,2019-09-11 17:29:41,63.976959,-21.607466,72.5,7.423967937315659e-31,1.811090178187108e-08,3.347072560757903e-10,17.307721322343657
306,2019-09-11 17:29:53,63.977577,-21.638672,70.5,6.5281660546267425e-31,1.811090178187108e-08,2.416394603343686e-10,17.307721322585294
307,2019-09-11 17:30:05,63.978184,-21.669653,68.5,5.68464035349588e-31,1.811090178187108e-08,1.6121483322837815e-10,17.30772132274651
308,2019-09-11 17:30:17,63.97879,-21.699583,66.5,4.893386479643742e-31,1.811090178187108e-08,9.463026281592804e-11,17.30772132284114
309,2019-09-11 17:30:29,63.97934,-21.728844,64.5,4.155463968095778e-31,1.811090178187108e-08,4.062743040785618e-11,17.30772132288177
310,2019-09-11 17:30:41,63.979843,-21.757578,62.75,3.5675325765659042e-31,1.811090178187108e-08,8.363910973125055e-12,17.30772132289013
311,2019-09-11 17:30:53,63.980324,-21.785889,60.75,3.015150224879036e-31,1.811090178187108e-08,7.559886429580352e-12,17.30772132289769
312,2019-09-11 17:31:05,63.980789,-21.813904,59.0,2.530983127232091e-31,1.811090178187108e-08,6.771509066955492e-12,17.307721322904463
313,2019-09-11 17:31:18,63.981262,-21.843567,57.0,1.9751410494358543e-31,1.811090178187108e-08,5.945936722389018e-12,17.30772132291041
314,2019-09-11 17:31:32,63.98172,-21.871878,55.0,1.41572488633389e-31,1.811090178187108e-08,5.159601276309252e-12,17.30772132291557
315,2019-09-11 17:31:42,63.982235,-21.900476,53.0,8.513034060944543e-32,1.811090178187108e-08,4.385148189363602e-12,17.307721322919953
316,2019-09-11 17:31:54,63.982681,-21.927866,51.75,4.987943256667048e-32,1.811090178187108e-08,3.6420523834893825e-12,17.307721322923594
317,2019-09-11 17:32:06,63.98307,-21.955517,50.5,1.4468850558310374e-32,1.811090178187108e-08,2.8996554877360102e-12,17.307721322926493
318,2019-09-11 17:32:18,63.983414,-21.982481,49.5,0.0,1.811090178187108e-08,0.0,17.307721322926493
319,2019-09-11 17:32:25,63.983551,-21.995157,49.0,0.0,1.811090178187108e-08,0.0,17.307721322926493
320,2019-09-11 17:32:37,63.983768,-22.020336,48.25,0.0,1.811090178187108e-08,0.0,17.307721322926493
321,2019-09-11 17:32:43,63.983871,-22.032976,47.75,0.0,1.811090178187108e-08,0.0,17.307721322926493
322,2019-09-11 17:32:54,63.984009,-22.056744,47.0,0.0,1.811090178187108e-08,0.0,17.307721322926493
323,2019-09-11 17:33:00,63.984051,-22.068018,46.5,0.0,1.811090178187108e-08,0.0,17.307721322926493
324,2019-09-11 17:33:09,63.984055,-22.079878,46.25,0.0,1.811090178187108e-08,0.0,17.307721322926493
325,2019-09-11 17:33:19,63.984188,-22.102076,45.5,0.0,1.811090178187108e-08,0.0,17.307721322926493
326,2019-09-11 17:33:25,63.984238,-22.112837,45.0,0.0,1.811090178187108e-08,0.0,17.307721322926493
327,2019-09-11 17:33:31,63.984238,-22.124563,44.75,0.0,1.811090178187108e-08,0.0,17.307721322926493
328,2019-09-11 17:33:43,63.984329,-22.146324,44.75,0.0,1.811090178187108e-08,0.0,17.307721322926493
329,2019-09-11 17:33:49,63.984375,-22.156677,44.5,0.0,1.811090178187108e-08,0.0,17.307721322926493
330,2019-09-11 17:33:55,63.984375,-22.167664,44.0,0.0,1.811090178187108e-08,0.0,17.307721322926493
331,2019-09-11 17:34:02,63.984375,-22.178017,43.25,0.0,1.811090178187108e-08,0.0,17.307721322926493
332,2019-09-11 17:34:29,63.984516,-22.225012,39.25,0.0,1.811090178187108e-08,0.0,17.307721322926493
333,2019-09-11 17:34:36,63.984516,-22.235449,38.25,0.0,1.811090178187108e-08,0.0,17.307721322926493
334,2019-09-11 17:34:47,63.984608,-22.255335,36.25,0.0,1.811090178187108e-08,0.0,17.307721322926493
335,2019-09-11 17:34:53,63.984608,-22.264782,35.25,0.0,1.811090178187108e-08,0.0,17.307721322926493
336,2019-09-11 17:34:59,63.98465,-22.274464,34.25,0.0,1.811090178187108e-08,0.0,17.307721322926493
337,2019-09-11 17:35:07,63.984695,-22.287563,33.25,0.0,1.811090178187108e-08,0.0,17.307721322926493
338,2019-09-11 17:35:17,63.984741,-22.303091,31.75,0.0,1.811090178187108e-08,0.0,17.307721322926493
339,2019-09-11 17:35:23,63.984741,-22.311119,31.25,0.0,1.811090178187108e-08,0.0,17.307721322926493
340,2019-09-11 17:36:50,63.984932,-22.440563,19.75,0.0,1.811090178187108e-08,0.0,17.307721322926493
341,2019-09-11 17:36:56,63.984932,-22.447926,19.25,0.0,1.811090178187108e-08,0.0,17.307721322926493
342,2019-09-11 17:37:06,63.984982,-22.461878,18.0,0.0,1.811090178187108e-08,0.0,17.307721322926493
343,2019-09-11 17:37:23,63.985016,-22.48278,16.25,0.0,1.811090178187108e-08,0.0,17.307721322926493
344,2019-09-11 17:37:33,63.984982,-22.495716,15.0,0.0,1.811090178187108e-08,0.0,17.307721322926493
345,2019-09-11 17:37:49,63.984982,-22.517139,13.25,0.0,1.811090178187108e-08,0.0,17.307721322926493
346,2019-09-11 17:38:05,63.985062,-22.538664,11.25,0.0,1.811090178187108e-08,0.0,17.307721322926493
347,2019-09-11 17:38:16,63.985062,-22.551445,10.25,0.0,1.811090178187108e-08,0.0,17.307721322926493
348,2019-09-11 17:38:26,63.985062,-22.565285,9.0,0.0,1.811090178187108e-08,0.0,17.307721322926493
349,2019-09-11 17:38:36,63.985073,-22.578991,7.75,0.0,1.811090178187108e-08,0.0,17.307721322926493
350,2019-09-11 17:38:46,63.985062,-22.590742,6.75,0.0,1.811090178187108e-08,0.0,17.307721322926493
351,2019-09-11 17:39:50,63.98534,-22.636972,0.0,0.0,1.811090178187108e-08,0.0,17.307721322926493
352,2019-09-11 17:39:56,63.985714,-22.63884,0.0,0.0,1.811090178187108e-08,0.0,17.307721322926493
353,2019-09-11 17:40:02,63.98608,-22.640287,0.0,0.0,1.811090178187108e-08,0.0,17.307721322926493
354,2019-09-11 17:40:09,63.986401,-22.641159,0.0,0.0,1.811090178187108e-08,0.0,17.307721322926493
355,2019-09-11 17:40:17,63.987076,-22.641554,0.0,0.0,1.811090178187108e-08,0.0,17.307721322926493
356,2019-09-11 17:40:23,63.987579,-22.641554,0.0,0.0,1.811090178187108e-08,0.0,17.307721322926493
357,2019-09-11 17:40:29,63.988075,-22.64156,0.0,0.0,1.811090178187108e-08,0.0,17.307721322926493
358,2019-09-11 17:40:35,63.988369,-22.641422,0.0,0.0,1.811090178187108e-08,0.0,17.307721322926493
359,2019-09-11 17:40:42,63.988529,-22.6409,0.0,0.0,1.811090178187108e-08,0.0,17.307721322926493
360,2019-09-11 17:40:51,63.988541,-22.639856,0.0,0.0,1.811090178187108e-08,0.0,17.307721322926493
361,2019-09-11 17:41:00,63.988541,-22.638592,0.0,0.0,1.811090178187108e-08,0.0,17.307721322926493
362,2019-09-11 17:41:09,63.988552,-22.637054,0.0,0.0,1.811090178187108e-08,0.0,17.307721322926493
363,2019-09-11 17:41:15,63.988552,-22.636036,0.0,0.0,1.811090178187108e-08,0.0,17.307721322926493
364,2019-09-11 17:41:27,63.988552,-22.634033,0.0,0.0,1.811090178187108e-08,0.0,17.307721322926493
365,2019-09-11 17:41:33,63.988552,-22.63299,0.0,0.0,1.811090178187108e-08,0.0,17.307721322926493
366,2019-09-11 17:41:46,63.988552,-22.630964,0.0,0.0,1.811090178187108e-08,0.0,17.307721322926493
367,2019-09-11 17:41:54,63.988541,-22.629618,0.0,0.0,1.811090178187108e-08,0.0,17.307721322926493
368,2019-09-11 17:42:03,63.988758,-22.628878,0.0,0.0,1.811090178187108e-08,0.0,17.307721322926493
369,2019-09-11 17:42:09,63.988995,-22.628704,0.0,0.0,1.811090178187108e-08,0.0,17.307721322926493
370,2019-09-11 17:42:15,63.989319,-22.628483,0.0,0.0,1.811090178187108e-08,0.0,17.307721322926493
371,2019-09-11 17:42:22,63.989651,-22.628271,0.0,0.0,1.811090178187108e-08,0.0,17.307721322926493
372,2019-09-11 17:42:30,63.990223,-22.627848,0.0,0.0,1.811090178187108e-08,0.0,17.307721322926493
373,2019-09-11 17:42:36,63.990635,-22.627584,0.0,0.0,1.811090178187108e-08,0.0,17.307721322926493
374,2019-09-11 17:42:43,63.991081,-22.627268,0.0,0.0,1.811090178187108e-08,0.0,17.307721322926493
375,2019-09-11 17:42:55,63.991997,-22.626781,0.0,0.0,1.811090178187108e-08,0.0,17.307721322926493
376,2019-09-11 17:43:04,63.992416,-22.627003,0.0,0.0,1.811090178187108e-08,0.0,17.307721322926493
377,2019-09-11 17:43:10,63.992672,-22.627331,0.0,0.0,1.811090178187108e-08,0.0,17.307721322926493
378,2019-09-11 17:43:16,63.992889,-22.627611,0.0,0.0,1.811090178187108e-08,0.0,17.307721322926493
379,2019-09-11 17:43:23,63.992867,-22.628086,0.0,0.0,1.811090178187108e-08,0.0,17.307721322926493
380,2019-09-11 17:43:31,63.992855,-22.628773,0.0,0.0,1.811090178187108e-08,0.0,17.307721322926493
381,2019-09-11 17:43:38,63.992847,-22.629171,0.0,0.0,1.811090178187108e-08,0.0,17.307721322926493
382,2019-09-11 17:43:44,63.992844,-22.629379,0.0,0.0,1.811090178187108e-08,0.0,17.307721322926493
